bump_plot
…
india$`Terrorism (deaths)` <- zoo::na.approx(india$`Terrorism (deaths)`)
india

## # A tibble: 28 x 37
##    Entity Code   Year Execution `Meningitis (de `Lower respirat
##    <chr>  <chr> <dbl>     <dbl>            <dbl>            <dbl>
##  1 India  IND    1990        NA          103690.          747663.
##  2 India  IND    1991        NA          103928.          747996.
##  3 India  IND    1992        NA          103038.          747396.
##  4 India  IND    1993        NA          100293.          733385.
##  5 India  IND    1994        NA           97095.          720018.
##  6 India  IND    1995        NA           95048.          708169.
##  7 India  IND    1996        NA           92687.          693828.
##  8 India  IND    1997        NA           92469.          691174.
##  9 India  IND    1998        NA           90614.          680899.
## 10 India  IND    1999        NA           89324.          661062.
## #  with 18 more rows, and 31 more variables: `Intestinal infectious diseases
## #   (deaths)` <dbl>, `Protein-energy malnutrition (deaths)` <dbl>, `Terrorism
## #   (deaths)` <dbl>, `Cardiovascular diseases (deaths)` <dbl>, `Dementia
## #   (deaths)` <dbl>, `Kidney disease (deaths)` <dbl>, `Respiratory diseases
## #   (deaths)` <dbl>, `Liver diseases (deaths)` <dbl>, `Digestive diseases
## #   (deaths)` <dbl>, `Hepatitis (deaths)` <dbl>, `Cancers (deaths)` <dbl>,
## #   `Parkinson disease (deaths)` <dbl>, `Fire (deaths)` <dbl>, `Malaria
## #   (deaths)` <dbl>, `Drowning (deaths)` <dbl>, `Homicide (deaths)` <dbl>,
## #   `HIV/AIDS (deaths)` <dbl>, `Drug use disorders (deaths)` <dbl>,
…
